Generate main timeline plot
…
ℹ Use `spec()` to retrieve the full column specification for this data.
ℹ Specify the column types or set `show_col_types = FALSE` to quiet this message.

df_ign <- df_ign |>
  mutate(
    Mag = floor(Magnitude),
    Depth = case_when(
      `Depth(km)` >= 28 ~ "Deep (>28km)",
      `Depth(km)` >= 18 ~ "Interchange (18km>x>28km)",
      TRUE ~ "Shallow (< 18km)"
    ))
df_ign |> 
  select(DateTime, Mag, Magnitude, Depth, `Depth(km)`)

# A tibble: 11,347 × 5
   DateTime              Mag Magnitude Depth                     `Depth(km)`
   <dttm>              <dbl>     <dbl> <chr>                           <dbl>
 1 2017-03-09 23:44:06     1       1.6 Interchange (18km>x>28km)        26  
 2 2017-03-10 00:16:10     2       2   Interchange (18km>x>28km)        27  
 3 2017-03-10 00:16:11     2       2.1 Interchange (18km>x>28km)        20  
 4 2017-03-10 03:20:26     1       1.6 Deep (>28km)                     30  
 5 2017-08-21 02:06:55     1       1.6 Shallow (< 18km)                  0  
 6 2017-10-07 10:27:29     1       1.5 Interchange (18km>x>28km)        21.6
 7 2017-10-07 13:03:25     2       2.7 Deep (>28km)                     28.2
 8 2017-10-07 20:09:58     1       1.6 Interchange (18km>x>28km)        24.2
 9 2017-10-07 23:06:16     1       1.5 Interchange (18km>x>28km)        24.4
10 2017-10-08 01:23:02     2       2.6 Interchange (18km>x>28km)        26.3
# ℹ 11,337 more rows
…
